Chapter 4 Missing Value | Covid-Crime-Relationship-Analysis
…
The missing value occurs from 02/29/2020 to 04/25/2022. Between this time frame, varaible HOSP_COUNT_7DAY_AVG records are missing over the 5 counties.

To deal with those missing value, as we are not quite interested in variable HOSP_COUNT_7DAY_AVG, we will not be bothered by the existence of missing values and will keep all the records in the dataset to continue further analysis.

Consider about the correlation between the variables in the dataset:

data_by_day

## # A tibble: 3,935 × 14
##    date_of_interest areas CASE_COUNT PROBABLE_CASE_COUNT HOSPITALIZED_COUNT
##    <chr>            <chr>      <dbl>               <dbl>              <dbl>
##  1 02/29/2020       BX             0                   0                  0
##  2 02/29/2020       BK             0                   0                  1
##  3 02/29/2020       MN             1                   0                  0
##  4 02/29/2020       QN             0                   0                  0
##  5 02/29/2020       SI             0                   0                  0
##  6 03/01/2020       BX             0                   0                  1
##  7 03/01/2020       BK             0                   0                  0
##  8 03/01/2020       MN             0                   0                  0
##  9 03/01/2020       QN             0                   0                  0
## 10 03/01/2020       SI             0                   0                  0
## # … with 3,925 more rows, and 9 more variables: DEATH_COUNT <dbl>,
## #   PROBABLE_DEATH_COUNT <dbl>, CASE_COUNT_7DAY_AVG <dbl>,
## #   ALL_CASE_COUNT_7DAY_AVG <dbl>, HOSP_COUNT_7DAY_AVG <lgl>,
## #   DEATH_COUNT_7DAY_AVG <dbl>, ALL_DEATH_COUNT_7DAY_AVG <dbl>,
## #   PROBABLE_CASE_COUNT_7DAY_AVG <dbl>, HOSPITALIZED_COUNT_7DAY_AVG <dbl>
…
